<?xml version="1.0" standalone="no"?>
<!DOCTYPE svg PUBLIC "-//W3C//DTD SVG 1.1//EN" "http://www.w3.org/Graphics/SVG/1.1/DTD/svg11.dtd" >
<svg xmlns="http://www.w3.org/2000/svg">
<metadata>
Created by FontForge 20120731 at Tue Aug  2 11:46:05 2016
 By admin
</metadata>
<defs>
<font id="zh-icon" horiz-adv-x="1024" >
  <font-face 
    font-family="zh-icon"
    font-weight="500"
    font-stretch="normal"
    units-per-em="1024"
    panose-1="2 0 6 3 0 0 0 0 0 0"
    ascent="896"
    descent="-128"
    x-height="792"
    bbox="34 -161 964 835"
    underline-thickness="50"
    underline-position="-100"
    unicode-range="U+0078-E606"
  />
<missing-glyph horiz-adv-x="374" 
d="M34 0v682h272v-682h-272zM68 34h204v614h-204v-614z" />
    <glyph glyph-name=".notdef" horiz-adv-x="374" 
d="M34 0v682h272v-682h-272zM68 34h204v614h-204v-614z" />
    <glyph glyph-name=".null" horiz-adv-x="0" 
 />
    <glyph glyph-name="nonmarkingreturn" horiz-adv-x="341" 
 />
    <glyph glyph-name="x" unicode="x" horiz-adv-x="1001" 
d="M281 543q-27 -1 -53 -1h-83q-18 0 -36.5 -6t-32.5 -18.5t-23 -32t-9 -45.5v-76h912v41q0 16 -0.5 30t-0.5 18q0 13 -5 29t-17 29.5t-31.5 22.5t-49.5 9h-133v-97h-438v97zM955 310v-52q0 -23 0.5 -52t0.5 -58t-10.5 -47.5t-26 -30t-33 -16t-31.5 -4.5q-14 -1 -29.5 -0.5
t-29.5 0.5h-32l-45 128h-439l-44 -128h-29h-34q-20 0 -45 1q-25 0 -41 9.5t-25.5 23t-13.5 29.5t-4 30v167h911zM163 247q-12 0 -21 -8.5t-9 -21.5t9 -21.5t21 -8.5q13 0 22 8.5t9 21.5t-9 21.5t-22 8.5zM316 123q-8 -26 -14 -48q-5 -19 -10.5 -37t-7.5 -25t-3 -15t1 -14.5
t9.5 -10.5t21.5 -4h37h67h81h80h64h36q23 0 34 12t2 38q-5 13 -9.5 30.5t-9.5 34.5q-5 19 -11 39h-368zM336 498v228q0 11 2.5 23t10 21.5t20.5 15.5t34 6h188q31 0 51.5 -14.5t20.5 -52.5v-227h-327z" />
    <glyph glyph-name="uniE600" unicode="&#xe600;" 
d="M512.5 748q-90.5 0 -173.5 -35.5t-142.5 -95t-95 -142.5t-35.5 -174t35.5 -173.5t95 -142.5t142.5 -95t173.5 -35t173.5 35t142.5 95t95 142.5t35.5 173.5t-35.5 174t-95 142.5t-142.5 95t-173.5 35.5zM512.5 -95q-107.5 0 -199 53t-144.5 144.5t-53 199t53 199
t144.5 144.5t199 53t199 -53t144.5 -144.5t53 -199t-53 -199t-144.5 -144.5t-199 -53zM351 195l30 -24q-50 -54 -92 -91q-10 12 -26 26q47 41 88 89zM267 238h47v231h-41v34h41v61h37v-61h104v63h36v-63h41v-34h-41v-231h40v-34h-264v34zM351 414h104v55h-104v-55zM351 326
h104v56h-104v-56zM351 238h104v56h-104v-56zM416 172l24 24q35 -26 66 -52l-27 -29q-27 28 -63 57zM558 552h177v-405q0 -59 -56 -59q-28 0 -55 2q-2 16 -6 38q36 -3 52 -3q28 0 28 27v105h-107q-6 -109 -67 -182q-13 14 -30 28q41 47 52 96q12 48 12 167v186zM593 290h105
v98h-103q0 -65 -2 -98zM698 518h-103v-97h103v97z" />
    <glyph glyph-name="uniE601" unicode="&#xe601;" 
d="M232 413v43h214v-45q-33 -49 -71 -94v-34q12 -9 22 -15q43 42 79 88l37 -32q-45 -41 -86 -77q39 -27 73 -52l-29 -39q-53 45 -96 77v-237h-47v270q-41 -41 -89 -76q-7 26 -15 50q103 77 168 173h-160zM314 547l40 21q22 -35 46 -80l-43 -22q-23 47 -43 81zM569 567h49
v-195l29 24q90 -80 161 -154l-41 -39q-65 78 -149 157v-364h-49v571zM516 -161q-91 0 -174.5 36t-143.5 96t-95.5 143t-35.5 174t35.5 174t95.5 143t143.5 95.5t174.5 35.5t174 -35.5t143 -95.5t95.5 -143t35.5 -174t-35.5 -174t-95.5 -143.5t-143 -96t-174 -35.5zM516 693
q-110 0 -203.5 -54t-148 -147.5t-54.5 -203.5t54.5 -203.5t148 -148t203.5 -54.5t203.5 54.5t147.5 148t54 203.5t-54 203.5t-147.5 147.5t-203.5 54z" />
    <glyph glyph-name="uniE602" unicode="&#xe602;" 
d="M354 -6h-228q-26 0 -45 19.5t-19 46.5v709q0 28 19 47t45 19h667q27 0 45.5 -19t18.5 -47v-241q0 -14 -7.5 -20.5t-15.5 -7.5h-8h-4q-2 0 -7.5 1.5t-10 4.5t-8 9t-3.5 15v207q0 16 -10.5 24.5t-20.5 8.5h-11l-589 1q-1 0 -4 0.5t-8.5 -1.5t-10.5 -5t-8.5 -10.5
t-3.5 -18.5v-647q0 -29 24 -29q175 -2 205 -2q29 -3 32 -31v-3q1 -4 -0.5 -9t-4.5 -9.5t-10.5 -8t-18.5 -3.5zM219 648q0 13 9 22.5t23 9.5h386q13 0 22.5 -9.5t9.5 -22.5t-9.5 -22.5t-22.5 -9.5h-386q-14 0 -23 9.5t-9 22.5zM219 492q0 14 9 23t23 9h299q13 0 22.5 -9
t9.5 -23q0 -13 -9.5 -22.5t-22.5 -9.5h-299q-14 0 -23 9.5t-9 22.5zM219 337q0 13 9 22.5t23 9.5h179q14 0 23 -9.5t9 -22.5t-9 -22.5t-23 -9.5h-179q-14 0 -23 9.5t-9 22.5zM219 181q0 14 9 23t23 9h179q14 0 23 -9t9 -23q0 -13 -9 -22.5t-23 -9.5h-179q-14 0 -23 9.5
t-9 22.5zM960 28l-97 180q16 35 16 74q0 75 -53.5 129t-129 54t-129.5 -53t-54 -129q0 -38 16 -75l-99 -178q-5 -10 1.5 -18.5t17.5 -5.5l83 18l29 -79q3 -10 14 -11h1q10 0 15 8l86 159l18 -2q1 0 17 2l87 -159q4 -9 14 -9h1q11 1 15 11l29 79l83 -19q10 -3 17 6q7 8 2 18z
M575 50l-10 29q-2 7 -10 5l-31 -7l44 79q16 -16 47 -33zM695 166q-48 0 -82 34.5t-34 83t34.5 82.5t82.5 34t82 -34.5t34 -83t-34.5 -82.5t-82.5 -34zM838 72q-8 2 -11 -7l-13 -34l-47 86q37 20 56 40l52 -94z" />
    <glyph glyph-name="uniE603" unicode="&#xe603;" 
d="M512.5 748q-90.5 0 -173.5 -35.5t-142.5 -95t-95 -142.5t-35.5 -174t35.5 -173.5t95 -142.5t142.5 -95t173.5 -35t173.5 35t142.5 95t95 142.5t35.5 173.5t-35.5 174t-95 142.5t-142.5 95t-173.5 35.5zM512.5 -95q-107.5 0 -199 53t-144.5 144.5t-53 199t53 199
t144.5 144.5t199 53t199 -53t144.5 -144.5t53 -199t-53 -199t-144.5 -144.5t-199 -53zM264 400h80q-21 34 -40 58l27 19q17 -20 43 -57l-29 -20h66q28 39 51 77l35 -20q-24 -31 -46 -57h75v-32h-262v32zM316 252l34 -16q-27 -56 -53 -102q-15 9 -33 18q24 38 52 100z
M278 306h102v48h36v-48h97v-32h-97v-130q0 -53 -51 -53q-22 0 -49 1q-2 16 -5 38q29 -3 45 -3q24 0 24 25v122h-102v32zM280 516h108q-11 20 -25 44l32 15q16 -25 29 -51l-17 -8h106v-32h-233v32zM460 249q28 -38 49 -69l-32 -22q-22 38 -46 72zM544 531q103 1 191 20
l13 -38q-99 -13 -169 -17v-117h183v-34h-72v-261h-37v261h-74v-24q0 -153 -73 -239q-12 16 -27 32q65 71 65 208v209z" />
    <glyph glyph-name="uniE605" unicode="&#xe605;" 
d="M311 393v79q0 10 0.5 19t4.5 28t11 33.5t22 32.5t35.5 30t53.5 20t73 8q150 0 183 -113h90v4q0 35 -23.5 71.5t-66.5 66.5q-87 63 -183 63q-118 0 -209 -70q-38 -30 -60.5 -65.5t-22.5 -66.5v-140h-81v-543h726v543h-553zM556 53v-28q0 -14 -15.5 -27.5t-39 -13.5
t-39.5 13.5t-16 27.5v28q-24 15 -38 39.5t-14 53.5q0 44 31.5 75.5t76 31.5t76 -31.5t31.5 -75.5q0 -29 -14.5 -53.5t-38.5 -39.5z" />
    <glyph glyph-name="uniE606" unicode="&#xe606;" 
d="M787 393l-3 141q0 35 -23.5 71.5t-66.5 66.5q-87 63 -183 63q-118 0 -209 -70q-38 -30 -60.5 -65.5t-22.5 -66.5v-140h-81v-543h726v543h-77zM311 472q0 10 0.5 19t4.5 28t11 33.5t22 32.5t35.5 30t53.5 20t73 8q52 0 90.5 -15t57 -34t29 -46.5t12.5 -43t2 -32.5v-79
h-391v79zM556 53v-28q0 -14 -15.5 -27.5t-39 -13.5t-39.5 13.5t-16 27.5v28q-24 15 -38 39.5t-14 53.5q0 44 31.5 75.5t76 31.5t76 -31.5t31.5 -75.5q0 -29 -14.5 -53.5t-38.5 -39.5z" />
  </font>
</defs></svg>
